task4/counter.vcd
$version Generated by VerilatedVcd $end
$date Fri Oct 20 15:00:39 2023 $end
$timescale 1ps $end

 $scope module TOP $end
  $var wire 12 & bcd [11:0] $end
  $var wire  1 # clk $end
  $var wire  1 % en $end
  $var wire  1 $ rst $end
  $scope module top $end
   $var wire 32 ) WIDTH [31:0] $end
   $var wire 12 & bcd [11:0] $end
   $var wire  1 # clk $end
   $var wire  8 ' count [7:0] $end
   $var wire  1 % en $end
   $var wire  1 $ rst $end
   $scope module myCounter $end
    $var wire 32 ) WIDTH [31:0] $end
    $var wire  1 # clk $end
    $var wire  8 ' count [7:0] $end
    $var wire  1 % en $end
    $var wire  1 $ rst $end
   $upscope $end
   $scope module myDecoder $end
    $var wire 12 & BCD [11:0] $end
    $var wire 32 * i [31:0] $end
    $var wire 20 ( result [19:0] $end
    $var wire  8 ' x [7:0] $end
   $upscope $end
  $upscope $end
 $upscope $end
$enddefinitions $end


#0
1#
1$
0%
b000000000000 &
b00000000 '
b00000000000000000000 (
b00000000000000000000000000001000 )
b00000000000000000000000000001000 *
#1
0#
#2
1#
#3
0#
#4
1#
#5
0#
#6
1#
0$
#7
0#
#8
1#
#9
0#
#10
1#
#11
0#
#12
1#
#13
0#
#14
1#
#15
0#
#16
1#
#17
0#
#18
1#
#19
0#
#20
1#
#21
0#
#22
1#
#23
0#
#24
1#
#25
0#
#26
1#
#27
0#
#28
1#
#29
0#
#30
1#
#31
0#
#32
1#
1$
#33
0#
#34
1#
0$
#35
0#
#36
1#
#37
0#
#38
1#
#39
0#
#40
1#
#41
0#
#42
1#
#43
0#
#44
1#
#45
0#
#46
1#
#47
0#
#48
1#
#49
0#
#50
1#
#51
0#
#52
1#
#53
0#
#54
1#
#55
0#
#56
1#
#57
0#
#58
1#
#59
0#
#60
1#
#61
0#
#62
1#
#63
0#
#64
1#
#65
0#
#66
1#
1%
#67
0#
#68
1#
b000000000001 &
b00000001 '
b00000000000100000000 (
#69
0#
#70
1#
b000000000010 &
b00000010 '
b00000000001000000000 (
#71
0#
#72
1#
b000000000011 &
b00000011 '
b00000000001100000000 (
#73
0#
#74
1#
b000000000100 &
b00000100 '
b00000000010000000000 (
#75
0#
#76
1#
b000000000101 &
b00000101 '
b00000000010100000000 (
#77
0#
#78
1#
b000000000110 &
b00000110 '
b00000000011000000000 (
#79
0#
#80
1#
b000000000111 &
b00000111 '
b00000000011100000000 (
#81
0#
#82
1#
b000000001000 &
b00001000 '
b00000000100000000000 (
#83
0#
#84
1#
b000000001001 &
b00001001 '
b00000000100100000000 (
#85
0#
#86
1#
b000000010000 &
b00001010 '
b00000001000000000000 (
#87
0#
#88
1#
b000000010001 &
b00001011 '
b00000001000100000000 (
#89
0#
#90
1#
b000000010010 &
b00001100 '
b00000001001000000000 (
#91
0#
#92
1#
b000000010011 &
b00001101 '
b00000001001100000000 (
#93
0#
#94
1#
b000000010100 &
b00001110 '
b00000001010000000000 (
#95
0#
#96
1#
0%
b000000010101 &
b00001111 '
b00000001010100000000 (
